....
----------------------------------------------------------------------
Ran 4 tests in 0.001s

OK
Name               Stmts   Miss Branch BrPart  Cover   Missing
--------------------------------------------------------------
Diplomacy.py          61      2     42      2    96%   29->exit, 72-73
TestDiplomacy.py      26      0      0      0   100%
--------------------------------------------------------------
TOTAL                 87      2     42      2    97%